["words"
{
"name": "АББАТ",
"description": "1. Настоятель католического мужского монастыря. 2. Католический священник во Франции."
},
{"name": "АББАТИСА" ,
"description": " настоятельница католического женского монастыря"
},

{
"name": " АББАТСКИЙ",
"description": "От лат. abbas, abbatis < сир. abba – отец, предок"
},
{
"name": "АББАТСТВО",
"description": "Католический монастырь с его владениями."
},

{
"name": "АБЕРРАЦИЯ",
"description": "1. Заблуждение, отклонение от истины (книжн.).  2. Искажение или недостаточная отчетливость изображений, даваемых оптическими приборами; кажущееся смещение небесных светил, вызываемое движением Земли вокруг Солнца и вращением ее вокруг своей оси (спец.)."
},
{
"name": "АБОНИРОВАТЬ",
"description": " рую, руешь, несов. и сов., перех. Получать (получить) по абонементу, приобретать (приобрести) право пользования чем-л. на определенный срок. "
},

{"name": "АБОНИРОВАТЬСЯ",
"description": "руюсь, руешься, несов. и сов"
},
{
"name": "АБОРИГЕН",
"description": "1. Коренной житель страны или местности. 2. Постоянный член опреде ленного сообщества (перен.)"
},

{
"name": "АБРЕК",
"description": "Горец, ведший борьбу против царской администрации и русских войск в период присоединения Кавказа к России"
},
{
"name":"АБРИС",
"description": "Очертание предмета, контурный рисунок."
},

{
"name": "АВАНГАРД",
"description": "Часть войск (или флота), находящаяся впереди главных сил."
},
{
"name": "АВАНПОСТ",
"description": "В некоторых армиях (в том числе и в царской России): передовой сторожевой пост, а также место его расположения невдалеке от неприятеля для предупреждения о его нападении."
},

{
"name": "АВАНТАЖ",
"description": "Благоприятное положение, преимущество, польза"
},
{"name":"АВАНТАЖ",
"description": "Привлекательный, вид ный, хороший."
},

{
"name": "АВГУР",
"description": "В древнем Риме: жрец – толкователь воли богов по крику и полету птиц; человек, делающий вид, что посвящен в особые тайны (перен.)."
},
{
"name": "АВГУСТЕЙШИЙ",
"description": "Почетный титул императора и членов императорской семьи."
},
{
"name": "АВРОРА",
"description": "1. В древнеримской мифологии: богиня утренней зари. 2. Символ утренней зари (поэт.)."
},
{
"name": "АВТОМЕДОН",
"description": "1. Имя возницы царя Ахиллеса в поэме Гомера «Илиада». 2. Кучер, ямщик (шутл., перен.)."
},

{
"name": "АГАРЯНЕ",
"description": "Мусульмане, тюрки. "
},
{
"name": "АГЛИЦКАЯ БОЛЕЗНЬ",
"description": "Английская болезнь"
},

{
"name": "АГЛИЦКИЙ",
"description": " 1. Английский. 2. Как английский, на английский манер"
},
{
"name": "АГНЕЦ",
"description": "1. Ягненок. 2. Символ христианского смирения, кротости, послушания и беззащитной жертвенности. В иудейском обряде: агнец (ягненок) – жи вотное, которое приносили в жертву Богу, в частности, в честь праздника Пасхи.
},

{
"name": "АГОНИЯ",
"description": "1. Предсмертное состояние организма. Агония этой болезни мучительна. Черн. Что д.* 2. Последняя стадия существования чего-л. (перен.)."
},
{
"name": "АДАМАНТ",
"description":"Алмаз; символ крепости (перен.)."
},

{
"name": "АДМИРАЛЬСКИЙ ЧАС",
"description": "Полдень, время раннего обеда, выпивки и закуски"
},
{
"name": "АДРЕС-КАЛЕНДАРЬ",
"description": " Ежегодно издаваемая в России до революции книга с перечнем государственных учреждений, имен и должностей чиновников государственных учреждений, духовных ведомств, гвардии."
},


{
"name": "АДСКИЙ КАМЕНЬ",
"description": "Азотнокислое серебро, ляпис для прижигания ран."
},
{
"name": "АЖИТАЦИЯ",
"description": "Возбужденное состояние, волнение."
},



{
"name": "АЖНО",
"description": " Разве, неужели."
},
{
"name": "АЗЯМ",
"description": "Длинный крестьянский кафтан без сборок из домотканой сермяжной ткани, или сермяги."
},



{
"name": "АЙ",
"description": "Сорт шампанского"
},
{
"name": "АКАФИСТ",
"description": "Церковное хвалебное песнопение, которое исполняли и слушали только стоя. "
},



{
"name": "АКИ",
"description": "Как будто, подобно тому как, словно."
},
{
"name": "АККОРД",
"description": "Соглашение, договор. Во времена Петра I как военный термин обозначал капитуляцию на определенных условиях."
},



{
"name": "АКСЕЛЬБАНТ",
"description": "1. Наплечное украшение шнуром из золотых и серебряных нитей на мундирах некоторых военных и должностных чинов в царской России. Он (Анатолий Курагин) был теперь в адъютантом мундире с одной эполетой и ак сельбантом. Л. Толст. Война и мир. 2. Наплечная нашивка на одежде лакеев. "
},
{
"name": "АКЦИЗ",
"description": "1. Государственный косвенный налог на товары внутреннего производства и массового употребления (соль, сахар, спички), а также на транспортные, коммунальные и другие услуги. 2 Название учреждения по сбору государственного налога (разг.)"
},



{
"name": "АЛЕБАРДА",
"description": "1. В XIV–XVI вв. старинное оружие на длинном древке в виде фигурного топорика. У дверей в спальню она поставила фигуру с алебардой, а над кроватями повесила венецианский фонарь. Чех. Расск. и пов. 2. В XVIII–XIX вв.: парадное оружие пехотного войска и вооружение полицейской стражи."
},
{
"name": "АЛЕКСАНДРИЙКА",
"description": "Бумажная ткань с трехцветными полосами белого, синего и желтого цвета."
},



{
"name": "АЛЕКСАНДР НЕВСКИЙ",
"description": "Неофициальное название ордена Святого Александра Невского, которым с 1725 года награждали за боевые заслуги и государственную службу. Его знаки — крест на красной ленте без каймы и серебряная восьмиконечная звезда. Этим орденом были награждены Суворов и Кутузов."
},
{
"name": "АЛКАНИЕ",
"description": "Сильное желание, тяга"
},
{
"name": "АЛКАТЬ",
"description": " Сильно желать"
},
{
"name": "АЛКОРАН",
"description": "Коран – книга, содержащая догматы ислама. "
},



{
"name": "АЛЛЕГРИ",
"description": " Салонная лотерея с немедленной выдачей выигрыша"
},
{
"name": "АЛЛЮР",
"description": "Способ движения лошади (галоп, шаг, рысь, иноходь, карьер)."
},



{
"name": "АЛТЫН",
"description": "Старинная русская монета достоинством в три копейки."
},
{
"name": "АЛТЫННИК",
"description": "Корыстный, скупой человек. "
},



{
"name": "АЛТЫННЫМ ГВОЗДЁМ ПРИБИТЬ",
"description": "Тяжело до статься, дорого стоить."
},
{
"name": "АЛЧБА",
"description": "Сильное желание, тяга. "
},



{
"name": "АЛЬМАВИВА",
"description": "Старинный широкий мужской плащ."
},
{
"name": "АЛЬМАНАХ",
"description": "Непериодическая подборка литературно художественных и других произведений разных авторов, нередко под общим названием."
},



{
"name": "АМАНАТ",
"description": "Заложник; человек, взятый в залог, в обеспечение чего-л."
},
{
"name": "АМБРА",
"description": "1. Стойкие тонкие дорогие духи на основе воскообразного ароматического вещества серого цвета, выделяемого кашалотами. 2. Благоухание (перен.)"
},



{
"name": "АМВОН",
"description": "В православной церкви: возвышение перед иконостасом, откуда читают проповеди."
},
{
"name": "АМПЛУА",
"description": "1. Специализация актера на исполнении определенных ролей. 2. Род занятий."
},



{
"name": "АМФИТРИОН",
"description": "Имя греческого царя, ставшее символом гостеприимства, радушия и хлебосольства."
},
{
"name": "АНАЛОЙ",
"description": "В православной церкви: высокий столик с наклонной верхней доской, на ко торый при богослужении кладут книги, иконы и т.д."
},



{
"name": "АНАХОРЕТ",
"description": "1. Отшельник; пустынник. 2. Человек, избегающий общества, живущий уединенно. "
},
{
"name": "АНГАЖИРОВАТЬ",
"description": "1. Предлагать (предложить) ангажемент, то есть заключить контракт с артистом. 2. Приглашать (пригласить) на танец."
},



{
"name": "АНГЛЕЗ",
"description": "Английский бальный танец, распространенный в странах Европы в XVII–XIX вв."
},
{
"name": "АНДРЕЙ ПЕРВОЗВАННЫЙ",
"description": "Неофициальное название ордена Святого Андрея Первозванного, который был учрежден Петром I в 1698 г. и выдавался в исключи тельных случаях военным и гражданским лицам, а чле ны императорского дома получали его при крещении или в день совершеннолетия. Его знаки – синий крест на голубой ленте через правое плечо и восьмиконечная серебряная звезда на груди слева с надписью: «За веру и верность»"
},



{
"name": "АНДРОНЫ",
"description": "Двухколесная повозка с волоча щимися жердями для перевозки сена и снопов"
},
{
"name": "АННА НА ШЕЕ",
"description": "Неофициальное название ордена Святой Анны, которым в России с конца XVIII и в XIX веке награждали военных и гражданских лиц, находившихся на государственной службе. Его знаки – покрытый красной финифтью золотой крест с изображением св. Анны в се редине на красной ленте с желтой каймой и восьмиконечная звезда с красным крестом посередине и девизом вокруг него. Четыре степени различались по ширине ленты, размеру креста, ношению на шее, через левое плечо, в петлице или на рукояти холодного оружия (медальон с крестом и короной). "
},



{
"name": "АНТИК",
"description": "1. Памятник древнего искусства; ста ринный или редкий предмет художественной работы. 2. О человеке, необычном для данной среды, со своеобразными манерами, привычками, поведением. "
},
{
"name": "АНТРАША",
"description": "1. В классическом балете: легкий прыжок вверх, при котором ноги танцора быстро скрещиваются в воздухе, касаясь друг друга. 2. Замысловатые движения ногами. "
},



{
"name": "АНТРЕ",
"description": "1. Парадный вход, передняя в богатых домах.  2. Первое блюдо, открывающее парадный обед, обычно легкая холодная закуска. 3. Клоунский номер – разговорная сценка или пантомима."
},
{
"name": "АНТРЕПРЕНЁР",
"description": "Театральный предприниматель, содержатель частного зрелищного предприятия (театра, цирка и т.д.)."
},



{
"name": "АНТРОПОС",
"description": "Человек"
},
{
"name": "АНФИЛАДА",
"description": "1. Ряд помещений (комнат, залов), расположенных по прямой линии и сообщающихся между собою дверями по одной оси. 2. Непрерывный путь (перен.)"
},
{
"name": "АПОПЛЕКСИЯ",
"description": "Кровоизлияние в мозг"
},
{
"name": "АПОФЕОЗ",
"description": "Прославление, возвеличение чего-л"
},

{
"name": "АРАПНИК",
"description": "Длинная охотничья плеть с рукояткой."
},
{
"name": "АРГАМАК",
"description": "Порода рослых легких и быстрых скаковых лошадей."
},

{
"name": "АРГУС",
"description": "Бдительный страж"
},
{
"name": "АРЕДОВЫ",
"description": "Бесконечно долго"
},

{
"name": "АРКАН",
"description": "1. Длинная веревка с подвижной петлей на конце для ловли лошадей и других животных (в старину – и для поимки пленных). 2. Старая линейная мера, равная 12 саженям, или 25,56 м."
},
{
"name": "АРМЯК",
"description": "Старинная повседневная крестьянская мужская одежда из толстого сукна в виде халата или прямого кафтана. "
},

{
"name": "АРТИКУЛ",
"description": "1. Ружейный прием, предписываемый воинским уставом. 2. Сам воинский устав как собрание правил."
},
{
"name": "АРХАЛУК",
"description": "Стеганный на вате короткий кафтан из цветной или полосатой ткани с застежками на крючках."
},

{
"name": "АРШИННИК",
"description": "1. Торговец тканями. 2. Недобросовестный торговец."
},
{
"name": "АСЕССОР",
"description": "В царской России: судебная должность и лицо, занимающее такую должность."
},

{
"name": "АСПИД",
"description": "1. Вид ядовитой змеи. 2. О злобном человеке, употребляется также как бранное слово (прост.)."
},
{
"name": "АССИГНАЦИЯ",
"description": "1. Название бумажных денежных знаков, выпускавшихся в России с 1769 по 1849 гг. до введения государственных кредитных билетов. "
},

{
"name": "АТАВИЗМ",
"description": "Появление у человека, животных или растений признаков, свойственных их отдаленным предкам"
},
{
"name": "АТТАШЕ",
"description": "Должностное лицо при дипломатической миссии для консультации в какойл. области, напр. военный атташе, торговый атташе."
},

{
"name": "АТТИТЮД",
"description": "1. Одна из основных поз в классическом танце, при которой равновесие сохраняется на одной ноге, а другая нога поднята. 2. Сложная комбинация (перен.). "
},
{
"name": "АФРОНТ",
"description": "Резкий выпад, публично нанесенное оскорбление."
},

{
"name": "АФФЕКТАЦИЯ",
"description": "Необычное, искусственное возбуждение; неестественность в жестах, манерах, речи."
},
{
"name": "АХИЛЛЕСОВА",
"description": "Наи более слабое, уязвимое место; наиболее чувствитель ная, уязвимая черта характера когол. Согласно древнегреческому мифу, один из самых храбрых и сильных героев – «быстроногий» Ахиллес — был смертельно ранен в пятку, которая была его единственным уязвимым местом: окунув новорожденного в священные воды Стикса, что защищало его от всех видов оружия, мать Ахиллеса держала его за пятку, которая осталась сухой. "
},

{
"name": "АХТИ",
"description": "Употребляется для выражения сильной тревоги, удивления, сожаления, досады, гнева и т.п."
},
{
"name": "БАБКА",
"description": "1. Надкопытный сустав ноги у живот ных.  2. Кость этого сустава, употребляемая для игры."
},

{
"name": "БАГРИТЬ",
"description": "Окрашивать в густо красный цвет."
},
{
"name": "БАГРЯНИЦА",
"description": "1. В древности: торжественное царское одеяние ярко красного цвета как знак верховной власти.  2. Об утренней заре и восходе солнца (поэт). "
},

{
"name": "БАЙБАК",
"description": "1. Крупный степной грызун из рода сурков, проводящих зиму и осень в спячке. 2. Неповоротливый, ленивый человек, лежебока (разг.)."
},
{
"name": "БАЙРАМ",
"description": "Название двух трех дневных переходящих мусульманских праздников."
},

{
"name": "БАКЕНБАРДИСТ",
"description": "1. Мужчина с бакенбардами. 2. Юноша, провалившийся на экзамене (разг., ирон.). "
},
{
"name": "БАКЕНЫ",
"description": "То же, что бакенбарды"
},

{
"name": "БАЛЯСИНА",
"description": "Небольшой точеный столбик у перил, ограды."
},
{
"name": "БАЛЯСЫ",
"description": "Пустые разговоры, шутки"
},

{
"name": "БАНДО",
"description": "Высокая женская прическа из накладных волос, перевязанных лентой"
},
{
"name": "БАНДУРА",
"description": "Украинский народный многострунный щипковый музыкальный инструмент"
},

{
"name": "БАЛЯСНИК",
"description": "Шутник, выдумщик, проказник"
},
{
"name": "БАЛЯСЫ",
"description": "Пустые разговоры, шутки."
},

{
"name": "БАНДО",
"description": "Высокая женская прическа из накладных волос, перевязанных лентой."
},
{
"name": "БАНДУРА",
"description": "Украинский народный многострунный щипковый музыкальный инструмент."
},

{
"name": "БАНК",
"description": "1. Азартная карточная игра.  2. Денежная сумма, поставленная на кон при игре в карты."
},
{
"name": "БАНКЕТ",
"description": "Небольшая насыпь у окопа, траншеи и т.д., сделанная для удобства стрельбы из ружей"
},

{
"name": "БАНКОМЁТ",
"description": "Игрок, который держит началь ную сумму и ведет игру. "
},
{
"name": "БАНЧИК",
"description": "Старинная русская азартная карточная игра. "
},

{
"name": "БАРАШЕК",
"description": "Деньги или подарок, даваемые в качестве подкупа; взятка. Выражение возникло в XVII в. в языке приказных, позже широко использовано в сатире М.Е. Салтыкова-Щедрина. "
},
{
"name": "БАРД",
"description": "Певец-поэт у древних кельтов, воспевавший героев и воинские подвиги."
},

{
"name": "БАРЕЖЕВЫЙ",
"description": "Сшитый из барежа – тонкой прозрачной шелковой ткани. "
},
{
"name": "БАРКА",
"description": "Плоскодонное речное судно без палубы для перевозки грузов."
},

{
"name": "БАРКАРОЛА",
"description": "1. Песня венецианских гондольеров. 2. Музыкальное или вокальное произведение лирического склада."
},
{
"name": "БАРКАС",
"description": "1. Большая многовесельная лодка или судовая шлюпка. 2. Небольшое торговое судно."
},

{
"name": "БАРМЫ",
"description": "Часть парадной одежды московских царей и князей (XIV – начало XVIII вв.) в виде широкого оплечья, украшенного драгоценными камнями."
},
{
"name": "БАРРЫ",
"description": "Спортивный снаряд типа перекла дины"
},

{
"name": "БАРСКАЯ БАРЫНЯ",
"description": " Старшая горничная, пользующаяся наибольшим расположением помещицы"
},
{
"name": "БАРЩИНА",
"description": "При крепостном праве: даровой принудительный крестьянский труд на помещичьей земле."
},

{
"name": "БАРЫШИ",
"description": "Доход, нажива; выгода"
},
{
"name": "БАРЫШНИК",
"description": "Перекупщик, получающий ба рыш; перекупщик лошадей, скота."
},

{
"name": "БАСТИОН",
"description": " Крепостное или полевое сооружение пятиугольной формы, небольшой форт."
},
{
"name": "БАСТОВАТЬ",
"description": " Отказываться от продолжения игры в карты"
},

{
"name": "БАСУРМАН",
"description": "1. Последователь ислама. 2. О человеке иной веры (прост.). "
},
{
"name": "БАТАЛИЯ",
"description": "Битва, сражение."
},

{
"name": "БАТОГ",
"description": " 1. Палка, трость, дубинка. 2. Палки для телесных наказаний, а также само наказание"
},
{
"name": "БАХУС",
"description": "1. В греческой мифологии: бог виноградарства, вина и веселья. 2. Символ вина."
},

{
"name": "БАШИБУЗУК",
"description": "1. Солдат нерегулярных конных частей турецкого войска в XVIII–XIX вв. 2. Головорез, разбойник, грубый, необузданный человек (перен., прост.)."
},
{
"name": "БАШЛЫК",
"description": "Суконный остроконечный колпак, закрывающий всю голову до плеч. "
},

{
"name": "БДЕНИЕ",
"description": "Бодрствование"
},
{
"name": "БЕДЛАМ",
"description": "Большой беспорядок, хаос, неразбериха. "
},

{
"name": "БЕДУИН",
"description": "Житель пустыни; араб-кочевник в Северной Африке, на Аравийском полуострове."
},
{
"name": "БЕЗВРЕМЕНЬЕ",
"description": "Тяжелое время, пора невзгод; время общественного застоя."
},

{
"name": "БЕЗЕ",
"description": "Поцелуй"
},
{
"name": "БЕЗМЕН",
"description": "Ручные рычажные или пружинные весы."
},

{
"name": "БЕЗУХАННЫЙ",
"description": "Без запаха"
},
{
"name": "БЕКЕША",
"description": "Мужское пальто со сборками в талии и разрезами сзади на меху или вате с теплым воротником."
},

{
"name": "БЕЛЕНЬКАЯ БУМАЖКА",
"description": " Ассигнация достоинством в 25 рублей."
},
{
"name": "БЕЛОЕ ДУХОВЕНСТВО",
"description": " Низшее духовенство, мирские служители культа, в отличие от черного духовенства, высшего монашествующего."
},

{
"name": "БЕЛОШВЕЙКА",
"description": "Швея, которая шьет белье."
},
{
"name": "БЕЛОЯРАЯ",
"description": "Просо, кукуруза, пшено (упоминается в сказках как корм для лошадей). "
},

{
"name": "БЕЛЫЙ ОРЁЛ",
"description": "Название одного из самых значи тельных орденов России (с 1831 г.), знаками которого были восьмиконечная золотая звезда, носимая на груди слева, и красный крест на синей ленте с изображением белого орла"
},
{
"name": "БЕЛЬВЕДЕР",
"description": "Вышка, надстройка над зданием с которой открывается вид на окрестности; название дворцовой постройки на возвышении"
},

{
"name": "БЕЛЬЭТАЖ",
"description": "1. Второй снизу этаж, считавшийся лучшим в старинных домах.  2. Первый выше партера ярус в зрительном зале."
},
{
"name": "БЕНЕФИС",
"description": "Театральный спектакль, сбор от которого идет в пользу одного из участников."
},

{
"name": "БЕНУАР",
"description": "Нижний ярус театральных лож на уровне партера."
},
{
"name": "БЕРЕЙТОР",
"description": "Специалист, объезжающий верховых лошадей, а также обучающий верховой езде. Помощник дрессировщика лошадей в цирке. "
},

{
"name": "БЕРЕСКЛЕТ",
"description": "Кустарник с вечнозелеными листьями, содержащий гуттаперчу"
},
{
"name": "БЕРТА",
"description": "Кружевное украшение выреза декольтированного платья. "
},

{
"name": "БЕСТИЯ",
"description": " Плут, пройдоха"
},
{
"name": "БЕСТЯГОЛЬНЫЙ",
"description": "Свободный от тягла (бес тягольными числились молодые парни до женитьбы; бобыли, калеки, старики от 60 лет)"
},

{
"name": "БЕЧЕВА",
"description": "1. Крученая веревка. 2. Приспособление для тяги судов – толстая веревка с лямками, с помощью которой бурлаки или лошади тянули суда вдоль берега реки против течения. "
},
{
"name": "БЕШМЕТ",
"description": "Верхняя (обычно мужская) одежда у тюркских, монгольских, кавказских народов, доходящая до колен и плотно прилегающая в груди и в талии. "
},

{
"name": "БИВАК",
"description": "Временная стоянка участников похода, экспедиции для отдыха или ночлега; привал войск под открытым небом. "
},
{
"name": "БИЛЬБОКЕ",
"description": "Игрушка – шарик, прикрепленный к палочке, который подбрасывается и ловится на острие палочки или в чашечку"
},

{
"name": "БИРЮК",
"description": "1. Волк-одиночка (диал.). 2. Одинокий и угрюмый человек (перен.)."
},
{
"name": "БИРЮЧ",
"description": "1. Вестник, глашатай в допетровской Руси. 2. О крикливом громогласном человеке"
},

{
"name": "БИСКВИТНАЯ ЛАВКА",
"description": "1. Место продажи фарфоровых изделий. 2. Кондитерская. "
},
{
"name": "БИТЮГ",
"description": "1. Сильная ломовая лошадь особо крупной породы.  2. О рослом человеке крепкого телосложения (перен., прост.)."
},

{
"name": "БИЧ",
"description": "1. Длинная плеть, кнут из мелко свитых ремней или веревок. 2. То, что приносит несчастья, причиняет бедствия, неприятности (перен.). "
},
{
"name": "БИШЬ",
"description": " То есть, а именно, вернее; употребля ется в речи как знак припоминания. "
},

{
"name": "БЛАГОВЕСТ",
"description": "Удары в один колокол перед началом церковной службы. "
},
{
"name": "БЛАГОЛЕПИЕ",
"description": "Величественная красота."
},

{
"name": "БЛАГОНРАВНЫЙ",
"description": "Отличающийся хорошим поведением; высоконравственный"
},
{
"name": "БЛАГООБРАЗНЫЙ",
"description": " Внушающий уважение своей внешностью (образом), приятный. "
},

{
"name": "БЛАГОПРИОБРЕТЁННЫЙ",
"description": "Приобретенный лично, не наследственный."
},
{
"name": "БЛАГОРОДИЕ",
"description": "В дореволюционной России: титулование гражданских чинов с четырнадцатого по девятый класс, а также старших офицеров (с мест. ваше, его, их)."
},

{
"name": "БЛАГОСТЬ",
"description": "Милость, милосердие, исходящее от божества, доброта, кротость. "
},
{
"name": "БЛАГОЧЕСТИВЫЙ",
"description": "Религиозный, набожный, соблюдающий предписания религии. "
},

{
"name": "БЛАГОЧИНИЕ",
"description": "1. Приличие, благопристойность; правила поведения в общественных местах (книжн.). 2. Полицейское управление в городах (прост.). "
},
{
"name": "БЛАГОЧИННЫЙ",
"description": "Приличный, благопристойный"
},

{
"name": "БЛАЖИТЬ",
"description": "Поступать своенравно, сумасбродно; дурить, капризничать"
},
{
"name": "БЛАНЖЕВЫЙ",
"description": "Телесного цвета"
},

{
"name": "БЛАНМАНЖЕ",
"description": "Желе из сливок или миндального молока"
},
{
"name": "БЛИНДАЖ",
"description": " Полевое укрытие от снарядов, постройка с навесом из толстых бревен, покрытых слоем земли или бетона"
},

{
"name": "БЛОНДЫ",
"description": "Шелковые кружева белого или кремового цвета"
},
{
"name": "БОА",
"description": "Длинный широкий жен ский шарф из меха или перьев"
},

{
"name": "БОБЫЛЬ",
"description": "1. Бедный безземельный крестьянин.  2. Одинокий, бессемейный человек (разг.)."
},
{
"name": "БОГАДЕЛКА",
"description": "Старуха, живущая в богадельне."
},

{
"name": "БОГАДЕЛЬНЯ",
"description": " Благотворительное заведение для призрения (содержания, досмотра) престарелых, больных, нищих."
},
{
"name": "БОГДЫХАН",
"description": "Китайский император"
},

{
"name": "БОГОМАЗ",
"description": "Плохой иконописец"
},
{
"name": "БОГОСЛОВ",
"description": "1. Специалист по догматам определенной религии. 2. Ученик или учитель по классу богословия в духовной семинарии."
},

{
"name": "БОГОХУЛИТЕЛЬ",
"description": "Тот, кто поносит Бога и догматы веры"
},
{
"name": "БОЖЬИ ЛЮДИ",
"description": "Странники, нищие, юродивые; блаженные, святые."
},

{
"name": "БОЛЕЗНЫЙ",
"description": " Вызывающий сострадание, жалость. О ком-л. ласково и сострадательно (чаще при ласковом обращении)."
},
{
"name": "БОЛИВАР",
"description": "вальные болезни (Повальный). БОЛИВАР, а, м. Модная в XIX веке широкополая шляпа, которую носили в знак сочувствия передовым идеям"
},

{
"name": "БОМБАРДИР",
"description": "Солдат артиллерии в царской армии"
},
{
"name": "БОМОНД",
"description": "м. Верхушка буржуазно-дворянского общества, высший свет"
},

{
"name": "БОН",
"description": "Заграждение из бревен, цепей, канатов, защищающее вход в бухту. "
},
{
"name": "БОНБОНЬЕРКА",
"description": "Изящная коробка для конфет"
},

{
"name": "БОНВОЯЖ",
"description": "1. Приятное путешествие. 2. Удобный экипаж"
},
{
"name": "БОНМО",
"description": "Меткое острое словечко"
},

{
"name": "БОНМОТИСТ",
"description": "Остряк"
},
{
"name": "БОННА",
"description": "ж. В богатых семьях: воспитательница-иностранка при маленьких детях"
},

{
"name": "БОНТОН",
"description": "Хороший тон, светская учтивость, изысканность в манерах"
},
{
"name": "БОРДО",
"description": "Сорт красного вина. "
},

{
"name": "БОРЗОЙ",
"description": "Быстрый в беге, тонконогий, с длинным поджарым туловищем и острой мордой (о породе охотничьих собак)."
},
{
"name": "БОРЗЫЙ",
"description": "Быстрый, резвый (о коне)."
},

{
"name": "БОСКЕТ",
"description": "1. Садик с ровно подстриженными в виде стенок деревьями и кустарниками. 2. Комната, украшенная зеленью"
},
{
"name": "БОСТОН",
"description": "Род карточной игры"
},

{
"name": "БОТВИНЬЯ",
"description": "Холодное, обычно рыбное кушанье на квасе с вареной ботвой свеклы, разной зеленью и мелко искрошенными овощами (огурцами, луком)"
},
{
"name": "БОЧАР",
"description": "Мастер по изготовлению бочек и другой деревянной посуды."
},

{
"name": "БРАЖНИК",
"description": "Пьяница, гуляка"
},
{
"name": "БРАНДЕНБУР",
"description": "Блестящий шнур на одежде. "
},

{
"name": "БРАННЫЙ",
"description": " 1. Имеющий отношение к битве; боевой, воинственный.  2. Военный; воинский. "
},
{
"name": "БРАНЫЙ",
"description": "Сшитый из брани – старинной узорчатой ткани"
},

{
"name": "БРАНЬ",
"description": "Война: битва, бой"
},
{
"name": "БРАТИНА",
"description": "Старинный общий сосуд для питья и еды; деревянная или металлическая кружка, которая ходит по кругу"
},

{
"name": "БРАТИЯ СВЯТАЯ",
"description": "Монахи, иноки"
},
{
"name": "БРАШНА",
"description": "Пища, яства, кушанья. "
},

{
"name": "БРЕГЕТ",
"description": ". Карманные часы; отличались большой точностью и показывали числа месяца."
},
{
"name": "БРЕЛОК",
"description": "Украшение в виде маленькой подвески к цепочке часов, браслету и т.п."
},

{
"name": "БРЕТЁР",
"description": "Дуэлянт, скандалист, задира."
},
{
"name": "БРИГ",
"description": "Двухмачтовое парусное судно с прямым парусным вооружением на обеих мачтах"
},

{
"name": "БРИГАДИР",
"description": "Военный чин – средний между полковником и генералмайором"
},
{
"name": "БРИЧКА",
"description": "Легкая дорожная повозка с откидным верхом. "
},

{
"name": "БРУЛЬОН",
"description": "Черновик"
},
{
"name": "БРУСТВЕР",
"description": "Земляной вал на наружной стороне окопа для защиты от пуль и осколков."
},

{
"name": "БРЫЖИ",
"description": "Воротник, манжеты или выпуск на груди в виде оборок и складок, служившие украшением мужской и женской одежды. "
},
{
"name": "БРЫЛЫ",
"description": "Об отвислых губах, щеках или подбородке у человека"
},

{
"name": "БРЮМЕР",
"description": "Название второго месяца французского республиканского календаря."
},
{
"name": "БУДЕ",
"description": "Если"
},

{
"name": "БУДОЧНИК",
"description": "В дореволюци онной России: полицейский, который нес караульную службу в будке"
},
{
"name": "БУЗА",
"description": "1. Легкий хмельной напиток из проса, гречихи, ячменя, распространенный в Крыму и на Кав казе.  2. Скандал, шум, беспорядок (перен., прост.). "
},

{
"name": "БУКИ",
"description": "Название буквы Б в кириллице для обозначения звука."
},
{
"name": "БУКЛИ",
"description": "Завитые кольцами волосы, локоны"
},

{
"name": "БУКОЛИКА",
"description": "Литера турное произведение, идеализированно описывающее пастушеский и сельский быт на лоне природы; пастораль. "
},
{
"name": "БУЛАНЫЙ",
"description": " Светло-рыжий с черным хвостом и гривой (о масти лошадей)."
},

{
"name": "БУЛАТ",
"description": ". 1. Старинная узорчатая сталь, употреб ляемая для изготовления холодного оружия. 2. Стальной клинок, меч."
},
{
"name": "БУЛЬВАРНЫЙ",
"description": "Имеющий отношение к бульвару, к прогулкам по бульварам"
},

{
"name": "БУНЧУЖНЫЙ",
"description": "Войсковой чин носителя гетманского бунчука"
},
{
"name": "БУНЧУК",
"description": "Древко с привязанным конским хвостом, служившее знаком власти казацких атаманов, украинских и польских гетманов, турецких пашей в XV–XVIII вв. "
},

{
"name": "БУРАК",
"description": "Длинный цилиндр из бересты с деревянным дном и крышкой."
},
{
"name": "БУРИДАНОВ ОСЁЛ",
"description": "О нерешительном человеке, который колеблется в выборе между двумя равнозначными желаниями и возможностями"
},

{
"name": "БУРИМЕ",
"description": "Стихотворение на заданные рифмы"
},
{
"name": "БУРКА",
"description": "Плащ или накидка на Кавказе из тон кого войлока с козьей шерстью"
},

{
"name": "БУРЛАК",
"description": ". 1. Артельный рабочий, который тянет суда вверх по реке при помощи бечевы или гребли. 2. Грубый, разнузданный человек; буян.  "
},
{
"name": "БУРМИСТР",
"description": "Управляющий помещичьим имением или староста. "
},

{
"name": "БУРНУС",
"description": "Просторное пальто (плащ) с широкими рукавами и капюшоном. "
},
{
"name": "БУРСА",
"description": "1. В России XVIII – первой половины XIX в.: общежитие при духовных учебных заведениях, где воспитанники содержались на казенный счет.  2. Ученики бурсы, бурсаки"
},

{
"name": "БУРСАК",
"description": "Ученик бурсы."
},
{
"name": "БУРШ",
"description": "В Германии: прозвище студента, принадлежавшего к студенческой корпорации, члены которой были известны участием в дуэлях, кутежах и т.п."
},

{
"name": "БУФЕТЧИК",
"description": "В барском доме: слуга, работавший в буфетной, приготовляющий закуски, чай, а также отвечавший за сервировку стола"
},
{
"name": "БУФФОНИТЬ",
"description": " ишь"
},

{
"name": "БЫЛЬЁ",
"description": "Трава"
},
{
"name": "БЮВАР",
"description": "Папка для хранения почтовой бумаги, конвертов, писем, промокательной бумаги. "
},

{
"name": "БЮРГЕР",
"description": "1. Горожанин, городской житель в Германии и некоторых других европейских странах. 2. Мещанин, обыватель"
},
{
"name": "БЮРО",
"description": "Вид письменного стола с выдвижной крышкой и ящиками для хранения бумаг."
},

{
"name": "ВАВИЛОНСКИЙ",
"description": "Глубокий, безысходный (о тоске, печали)."
},
{
"name": "ВАЖЕВАТЫЙ",
"description": "Разговорчивый, приветливый, обходительный."
},

{
"name": "ВАЖИ",
"description": "Большие ящики, чемоданы, прикреплявшиеся к крыше возка или кареты как багаж"
},
{
"name": "ВАКАЦИИ",
"description": "Каникулы у учащихся."
},

{
"name": "ВАКХ",
"description": "1. В античной мифологии: бог вина и веселья. 2. Символ вина."
},
{
"name": "ВАЛААМОВА ОСЛИЦА",
"description": "О покорном, молчаливом человеке, который выразил неожиданный протест"
},

{
"name": "ВАЛАНДАТЬСЯ",
"description": "Медленно и бестолково заниматься чем-л., теряя время. "
},
{
"name": "ВАЛТОРНА",
"description": "Медный музыкальный духовой инструмент в виде спирально согнутой трубы с широким раструбом, отличающийся мягкостью и полнотой звука"
},

{
"name": "ВАЛЬПУРГИЕВА НОЧЬ",
"description": "По поверьям, праздник ведьм. "
},
{
"name": "ВАЛЬТРАП",
"description": "Суконное покрывало на кавалерийском седле"
},

{
"name": "ВАНЬКА",
"description": "Извозчик, преимущественно из крестьян, на плохой лошаденке с бедной упряжью, приехавший в город на заработки. "
},
{
"name": "ВАНЬКАКАИН",
"description": "Грабитель; нечистый на руку"
},

{
"name": "ВАРЕНУХА",
"description": " Водка, сваренная с пряностями и ягодами"
},
{
"name": "ВАРНАК",
"description": "Беглый или отбывший наказание каторжник"
},

{
"name": "ВАСИЛИСК",
"description": "Сказочное чудовище, змей, взгляд которого убивает все живое."
},
{
"name": "ВАСИСДАС",
"description": "Маленькая дверка, форточка в окне или двери."
},

{
"name": "ВАССАЛ",
"description": "1. При феодальном строе: землевладелец, подчиненный более крупному феодалу и несущий по отношению к нему разные повинности.  2. Крепостной крестьянин. "
},
{
"name": "ВАТЕРПРУФ",
"description": "Непромокаемое пальто, плащ-дождевик, а также женское длинное летнее пальто. "
},

{
"name": "ВАХЛАК",
"description": " Нерасторопный, грубоватый, малокультурный человек. "
},
{
"name": "ВАХЛАТЧИНА",
"description": "Угнетаемое забитое крестьянство."
},

{
"name": "ВАХМИСТР",
"description": "В царской армии: унтер-офицер в кавалерийском эскадроне. "
},
{
"name": "ВДРУГОРЯДЬ",
"description": "Вторично, в другой раз"
},

{
"name": "ВЕДИ",
"description": "Название буквы В в кириллице для обозначения звука"
},
{
"name": "ВЁДРО",
"description": " Ясная, тихая, сухая погода."
},

{
"name": "ВЕЖДЫ",
"description": "Веки; глаза"
},
{
"name": "ВЕКСЕЛЬ",
"description": "Денежный долговой документ, содержащий обязательство об уплате долга в определенный срок"
},

{
"name": "ВЕЛЕНЕВАЯ БУМАГА",
"description": "Плотная глянцевая бумага"
},
{
"name": "ВЕЛЕРЕЧИВЫЙ",
"description": "Многословный, высокопарный"
},

{
"name": "ВЕЛИКАЯ ПЯТНИЦА",
"description": "Пятница на последней неделе перед Пасхой, называется также Страстной"
},
{
"name": "ВЕЛИКОРОССИЯНИН",
"description": "Русский"
},

{
"name": "ВЕЛОСИФЕР",
"description": "Многоместная закрытая карета для перевозки пассажиров и почты. "
},
{
"name": "ВЕЛЬЗЕВУЛ",
"description": "Черт, дьявол."
},

{
"name": "ВЕЛЬМИ",
"description": "Весьма, очень"
},

{
"name": "ВЕНГЕРКА",
"description": ""
},

{
"name": "ВЕНГЕРКА",
"description": "Старинная куртка с высокой талией, нашитыми поперечными шнурами, которая напоминает форменную одежду венгерских гусар (короткая куртка на манер венгерского гусарского костюма, в XIX в. – часть военной формы в русской армии, а позже – костюм деревенских помещиков из отставных военных)."
},
{
"name": "ВЕНДЕТТА",
"description": "Обычай кровной мести за убийство родственника у корсиканцев"
},
{
"name": "ВЕНЕРА",
"description": "В древнеримской мифологии: богиня любви и красоты (в греч. мифологии – Афродита)."
},
{
"name": "ВЕНЗЕЛЬ",
"description": " Сочетание начальных букв имени и фамилии, имени и отчества, двух имен в одном общем рисунке, вязи. "
},
{
"name": "ВЕНЦЕНОСЕЦ",
"description": "Монарх"
},
{
"name": "ВЕРБНОЕ ВОСКРЕСЕНЬЕ",
"description": "Воскресенье перед Пасхой, один из двунадесятых праздников – Вход Господень в Иерусалим (по евангельскому преданию Иисус Христос перед своей мученической смертью торжественно въехал в Иерусалим на ослице и был встречен пальмовыми ветвями. В России их заменили вербой, которой приписывали магические свойства)"
},
{
"name": "ВЕРБНЫЙ ХЕРУВИМ",
"description": " Печеное изделие или кукол ка в виде херувима, продаваемые на праздничном базаре в Вербное воскресенье. "
},
{
"name": "ВЁРСТКА",
"description": "1. В Русском государстве XVI–XVII вв.: зачисление на военную службу «великовозрастных» дворянских, боярских детей и городовых казаков с одновременным назначением им жалованья. 2. Выделение земельного участка в награду за хорошую военную службу. "
},
{
"name": "ВЕРТЕП",
"description": "1. Пещера.  2. Большой ящик с передвижным кукольным театром, представляющим пьесы религиозного и светского содержания. 3. Притон, убежище преступников и развратников (перен.). "
},
{
"name": "ВЕРТЛЮГ",
"description": "Бугор в верхней части бедренной кости, служащий местом прикрепления мышц, поворачивающих бедро."
},
{
"name": "ВЕРТОГРАД",
"description": " Сад; виноградник."
},
{
"name": "ВЕРТОПРАХ",
"description": "Легкомысленный, ветреный человек"
},
{
"name": "ВЕРТУШКА",
"description": "Судьба, фортуна. Богиня судьбы – Фортуна – изображалась стоящей на шаре или вращающемся колесе с повязкой на глазах."
},
{
"name": "ВЕРШИТЬ",
"description": "Решать, доводить до верху, совершать. "
},
{
"name": "ВЕРШНИК",
"description": "Всадник"
},
{
"name": "ВЕРШОК",
"description": "Старинная русская мера длины, равная 4,4 см"
},
{
"name": "ВЕСТАЛКА",
"description": "В древнеримской мифологии: дев ственная жрица богини домашнего очага Весты, поддерживающая священный огонь в храме. "
},
{
"name": "ВЕСТИМО",
"description": " Конечно, само собой разумеется, известно."
},
{
"name": "ВЕСТОВОЙ",
"description": "Посыльный в армии; подающий весть, сигнал о чем-л"
},
{
"name": "ВЕСТОВЩИЦА",
"description": "Любительница извещать о новом; сплетница. "
},
{
"name": "ВЕТОШЬ",
"description": "1. Старое, изношенное платье; тряпье. 2. Очевидная, неприкрытая маскировка лжи и пустоты светской жизни (перен.). "
},
{
"name": "ВЕТРИЛО",
"description": "Парус"
},




]