<svg width="179" height="37" viewBox="0 0 179 37" fill="none" xmlns="http://www.w3.org/2000/svg">
<path d="M54.6055 26.0312C55.4492 26.0312 55.9883 26.582 56.2227 27.6836C56.2461 27.7539 56.2578 27.8242 56.2578 27.8945C56.2578 28.7148 55.168 29.7109 52.9883 30.8828C51.2539 31.8203 49.2149 32.2891 46.8711 32.2891C45.4649 32.2891 43.9649 32.125 42.3711 31.7969C39.5117 31.2109 37.3438 29.9336 35.8672 27.9648C34.5313 26.1836 33.8633 24.0273 33.8633 21.4961C33.8633 17.957 34.9883 14.7578 37.2383 11.8984C39.6289 8.875 42.4766 7.36328 45.7813 7.36328C47.1875 7.36328 48.1485 7.41016 48.6641 7.50391C49.9531 7.76172 50.5625 8.32422 50.4922 9.19141C50.3985 10.5039 49.1094 11.125 46.625 11.0547C44.1406 10.9844 41.9961 11.9922 40.1914 14.0781C38.457 16.0703 37.5899 18.3438 37.5899 20.8984C37.5899 21.6719 37.6953 22.4102 37.9063 23.1133C38.375 24.918 39.4414 26.3477 41.1055 27.4023C42.6524 28.3633 44.4102 28.8438 46.3789 28.8438C48.418 28.8438 50.1992 28.3164 51.7227 27.2617C52.8945 26.4414 53.8555 26.0312 54.6055 26.0312ZM74.293 19.6328C74.293 21.9531 74.1992 24.5547 74.0117 27.4375C73.6836 30.8359 71.3516 32.5469 67.0156 32.5703H66.7695C63.5586 32.5703 61.3906 31.1523 60.2656 28.3164C59.5625 26.4414 59.1875 23.5352 59.1406 19.5977V19.1406C59.1406 16.1406 59.6094 14.6289 60.5469 14.6055C61.6719 14.582 62.2344 15.1797 62.2344 16.3984C62.2344 16.8438 62.1875 17.5234 62.0938 18.4375C62.0235 19.3516 61.9883 20.0312 61.9883 20.4766C61.9883 26.6406 63.6641 29.7227 67.0156 29.7227C69.9922 29.7227 71.4805 27.7188 71.4805 23.7109C71.4805 23.125 71.4102 21.5781 71.2695 19.0703C71.2461 16.6797 71.3985 15.2734 71.7266 14.8516C72.0781 14.4297 72.4883 14.2188 72.957 14.2188C73.8477 14.2188 74.293 15.4492 74.293 17.9102V19.6328ZM81.7813 9.22656C81.7813 10.7969 81.6406 13.1055 81.3594 16.1523C81.1016 19.1992 80.9727 21.4961 80.9727 23.043C80.9727 24.2852 81.0313 25.4453 81.1485 26.5234C81.2656 27.5781 81.3242 28.3867 81.3242 28.9492C81.3242 31.1055 80.7735 32.2773 79.6719 32.4648L79.461 32.5H79.4258C78.3477 32.5 77.8086 30.8828 77.8086 27.6484C77.8086 23.8516 77.9258 20.0312 78.1602 16.1875C78.5352 10.3984 79.086 7.22266 79.8125 6.66016C80.1875 6.37891 80.5156 6.23828 80.7969 6.23828C81.4531 6.23828 81.7813 7.23438 81.7813 9.22656ZM89.5508 17.9453C89.4102 23.2656 89.5742 26.6523 90.043 28.1055C90.3242 29.043 90.9219 29.3828 91.836 29.125C92.586 28.8203 93.336 28.5156 94.086 28.2109C94.8594 28 95.2813 28.3984 95.3516 29.4062C95.4219 30.3203 95.0235 31.0586 94.1563 31.6211C93.3828 32.1367 92.4336 32.3945 91.3086 32.3945C89.832 32.3945 88.7422 31.9844 88.0391 31.1641C87.1485 30.1328 86.7031 26.9453 86.7031 21.6016C86.7031 20.6406 86.7266 19.4219 86.7735 17.9453C85.2031 17.7812 84.418 17.1719 84.418 16.1172C84.418 15.1797 85.0274 14.7109 86.2461 14.7109L86.9141 14.7812C87.1953 9.71875 87.8164 7.1875 88.7774 7.1875H88.8477C89.8789 7.30469 90.3945 8.05469 90.3945 9.4375C90.3945 9.85938 90.3477 10.3281 90.2539 10.8438C89.9961 12.0625 89.8086 13.3984 89.6914 14.8516L93.5235 14.6055C94.8594 14.6055 95.586 15.0742 95.7031 16.0117C95.7031 17.0195 93.6524 17.6641 89.5508 17.9453Z" fill="#553788"/>
<path d="M111.348 17.5586C113.457 17.6523 115.086 18.1797 116.234 19.1406C117.266 20.0312 117.781 21.168 117.781 22.5508C117.781 24.0508 117.195 25.5156 116.023 26.9453C114.781 28.4688 113.141 29.5938 111.102 30.3203C107.141 31.75 104.223 32.4648 102.348 32.4648C102.137 32.4648 101.938 32.4531 101.75 32.4297C100.086 32.2422 99.1602 29.2539 98.9727 23.4648C98.832 20.5586 98.6797 16.2109 98.5156 10.4219V10.3516C98.5156 9.17969 99.207 8.26562 100.59 7.60938C101.855 7.02344 103.484 6.73047 105.477 6.73047C107.844 6.73047 109.988 7.11719 111.91 7.89062C113.996 8.71094 115.18 9.77734 115.461 11.0898C115.531 11.418 115.566 11.7344 115.566 12.0391C115.566 14.1016 114.16 15.9414 111.348 17.5586ZM102.172 17.1719C107.82 16.2812 111.078 15.0039 111.945 13.3398C112.133 12.9883 112.227 12.6602 112.227 12.3555C112.227 11.2773 110.867 10.5977 108.148 10.3164C106.25 10.1055 105.137 10 104.809 10C103.426 10 102.582 10.2695 102.277 10.8086C102.02 11.2305 101.891 12.0508 101.891 13.2695C101.891 14.1836 101.984 15.4844 102.172 17.1719ZM103.156 28.9492C110.844 27.4023 114.605 25.5742 114.441 23.4648C114.254 21.3789 112.156 20.3359 108.148 20.3359C106.836 20.3359 105.582 20.4531 104.387 20.6875C103.215 20.9219 102.594 21.1328 102.523 21.3203C102.453 21.5078 102.418 21.7891 102.418 22.1641C102.418 23.1953 102.664 25.457 103.156 28.9492ZM138.207 22.0234C138.207 25.375 137.199 28 135.184 29.8984C133.426 31.5625 131.27 32.3945 128.715 32.3945C126.535 32.3945 124.695 31.7852 123.195 30.5664C121.555 29.2773 120.734 27.5898 120.734 25.5039C120.734 21.7539 121.719 18.8359 123.688 16.75C125.398 14.8984 127.52 13.9727 130.051 13.9727C132.254 13.9727 134.129 14.6758 135.676 16.082C137.363 17.6055 138.207 19.5859 138.207 22.0234ZM135.184 23.4648C135.254 21.1445 134.984 19.5977 134.375 18.8242C133.766 18.0273 132.383 17.5586 130.227 17.418C126.758 17.1836 124.719 19.0234 124.109 22.9375C124.016 23.5 123.969 24.0156 123.969 24.4844C123.969 27.4609 125.668 28.9727 129.066 29.0195C133.027 29.0898 135.066 27.2383 135.184 23.4648ZM158.422 22.0234C158.422 25.375 157.414 28 155.398 29.8984C153.641 31.5625 151.484 32.3945 148.93 32.3945C146.75 32.3945 144.91 31.7852 143.41 30.5664C141.77 29.2773 140.949 27.5898 140.949 25.5039C140.949 21.7539 141.934 18.8359 143.902 16.75C145.613 14.8984 147.734 13.9727 150.266 13.9727C152.469 13.9727 154.344 14.6758 155.891 16.082C157.578 17.6055 158.422 19.5859 158.422 22.0234ZM155.398 23.4648C155.469 21.1445 155.199 19.5977 154.59 18.8242C153.98 18.0273 152.598 17.5586 150.441 17.418C146.973 17.1836 144.934 19.0234 144.324 22.9375C144.23 23.5 144.184 24.0156 144.184 24.4844C144.184 27.4609 145.883 28.9727 149.281 29.0195C153.242 29.0898 155.281 27.2383 155.398 23.4648ZM165.207 28.9844C165.277 29.3125 165.313 29.6406 165.313 29.9688C165.313 31.5859 164.645 32.4062 163.309 32.4297H163.273C162.195 32.4297 161.656 31.3281 161.656 29.125C161.656 28.75 161.68 28.2695 161.727 27.6836C161.867 25.6445 161.914 23.1016 161.867 20.0547L161.727 12.4258C161.727 8.74609 162.195 6.90625 163.133 6.90625C164.352 6.95313 164.961 9.01562 164.961 13.0938C164.961 13.8672 164.926 14.9102 164.855 16.2227C164.691 19.1758 164.633 21.6016 164.68 23.5C166.625 22.375 168.02 21.5547 168.863 21.0391C170.387 20.0547 171.676 19.082 172.73 18.1211C173.434 17.5117 173.961 17.207 174.313 17.207C174.594 17.207 174.828 17.3594 175.016 17.6641C175.227 17.9453 175.332 18.2383 175.332 18.543C175.332 19.5273 174.16 20.8984 171.816 22.6562C170.27 23.8047 168.723 24.9414 167.176 26.0664C168.23 26.582 169.93 27.1914 172.273 27.8945C175.367 28.832 176.914 29.8633 176.914 30.9883C176.914 31.082 176.902 31.1758 176.879 31.2695C176.715 32.0195 176.316 32.3945 175.684 32.3945C172.566 31.3398 169.074 30.2031 165.207 28.9844Z" fill="#226699"/>
<path d="M12 29.2254C12 31.1177 11.322 32.6519 9.42858 32.6519H3.42858C1.20997e-05 32.6519 1.20997e-05 20.659 3.42858 20.659H9.42858C11.322 20.659 12 22.1932 12 24.0855V29.2254Z" fill="#553788"/>
<path d="M28.2857 30.9386H27.4286V22.3723H28.2857C28.7597 22.3723 29.1429 21.9894 29.1429 21.5156C29.1429 21.0419 28.7597 20.659 28.2857 20.659H7.7143C4.28573 20.659 4.28573 32.6519 7.7143 32.6519H28.2857C28.7597 32.6519 29.1429 32.269 29.1429 31.7953C29.1429 31.3216 28.7597 30.9386 28.2857 30.9386Z" fill="#9266CC"/>
<path d="M28.4332 30.9387H8.57144C6.85716 30.9387 6.85716 22.3723 8.57144 22.3723H28.4332C29.3794 22.3723 29.3794 30.9387 28.4332 30.9387Z" fill="#CCD6DD"/>
<path d="M8.99999 24.0856H29.0143C28.8986 23.079 28.7057 22.3723 28.4331 22.3723H8.57142C7.15628 22.3723 6.91028 28.2043 7.83171 30.2431C7.49571 27.7083 7.88485 24.0856 8.99999 24.0856Z" fill="#99AAB5"/>
<path d="M9.42858 9.52273C9.42858 11.415 7.89344 12.9493 6.00001 12.9493H2.57144C-0.857127 12.9493 -0.857127 3.52628 2.57144 3.52628H6.00001C7.89344 3.52628 9.42858 5.06051 9.42858 6.95282V9.52273Z" fill="#226699"/>
<path d="M25.7143 11.236H24.8571V5.23955H25.7143C26.1883 5.23955 26.5714 4.85663 26.5714 4.38291C26.5714 3.90919 26.1883 3.52628 25.7143 3.52628H5.14286C1.71429 3.52628 1.71429 12.9493 5.14286 12.9493H25.7143C26.1883 12.9493 26.5714 12.5664 26.5714 12.0926C26.5714 11.6189 26.1883 11.236 25.7143 11.236Z" fill="#55ACEE"/>
<path d="M25.8617 11.236H6.00002C4.28573 11.236 4.28573 5.23958 6.00002 5.23958H25.8617C26.808 5.23958 26.808 11.236 25.8617 11.236Z" fill="#CCD6DD"/>
<path d="M6.00007 6.95285H26.5072C26.4095 5.98914 26.1952 5.23958 25.8618 5.23958H6.00007C4.9775 5.23958 4.5695 7.37175 4.7675 9.09444C4.90121 7.93113 5.30836 6.95285 6.00007 6.95285Z" fill="#99AAB5"/>
<path d="M16.2857 17.2325C16.2857 19.1248 14.7506 20.659 12.8572 20.659H4.28573C0.857159 20.659 0.857159 12.9493 4.28573 12.9493H12.8572C14.7506 12.9493 16.2857 14.4835 16.2857 16.3758V17.2325Z" fill="#F4900C"/>
<path d="M29.1429 18.9457H28.2857V14.6626H29.1429C29.6169 14.6626 30 14.2796 30 13.8059C30 13.3322 29.6169 12.9493 29.1429 12.9493H12C8.57144 12.9493 8.57144 20.659 12 20.659H29.1429C29.6169 20.659 30 20.2761 30 19.8024C30 19.3287 29.6169 18.9457 29.1429 18.9457Z" fill="#FFAC33"/>
<path d="M29.2903 18.9457H12.8572C11.1429 18.9457 11.1429 14.6626 12.8572 14.6626H29.2903C30.2366 14.6626 30.2366 18.9457 29.2903 18.9457Z" fill="#CCD6DD"/>
<path d="M12.8572 16.3758H29.9863C29.9306 15.4661 29.7001 14.6626 29.2903 14.6626H12.8572C11.7652 14.6626 11.3718 16.399 11.6718 17.6608C11.8415 16.9421 12.2349 16.3758 12.8572 16.3758Z" fill="#99AAB5"/>
</svg>
